-- Merging decision tree log ---
manifest
ADDED from C:\Flutter\flutter_windows_v1.9.1+hotfix.6-stable\flutter\.pub-cache\hosted\pub.dartlang.org\firebase_database-2.0.3\android\src\main\AndroidManifest.xml:1:1-3:12
INJECTED from C:\Flutter\flutter_windows_v1.9.1+hotfix.6-stable\flutter\.pub-cache\hosted\pub.dartlang.org\firebase_database-2.0.3\android\src\main\AndroidManifest.xml:1:1-3:12
INJECTED from C:\Flutter\flutter_windows_v1.9.1+hotfix.6-stable\flutter\.pub-cache\hosted\pub.dartlang.org\firebase_database-2.0.3\android\src\main\AndroidManifest.xml:1:1-3:12
	package
		ADDED from C:\Flutter\flutter_windows_v1.9.1+hotfix.6-stable\flutter\.pub-cache\hosted\pub.dartlang.org\firebase_database-2.0.3\android\src\main\AndroidManifest.xml:2:3-49
		INJECTED from C:\Flutter\flutter_windows_v1.9.1+hotfix.6-stable\flutter\.pub-cache\hosted\pub.dartlang.org\firebase_database-2.0.3\android\src\main\AndroidManifest.xml
		INJECTED from C:\Flutter\flutter_windows_v1.9.1+hotfix.6-stable\flutter\.pub-cache\hosted\pub.dartlang.org\firebase_database-2.0.3\android\src\main\AndroidManifest.xml
	xmlns:android
		ADDED from C:\Flutter\flutter_windows_v1.9.1+hotfix.6-stable\flutter\.pub-cache\hosted\pub.dartlang.org\firebase_database-2.0.3\android\src\main\AndroidManifest.xml:1:11-69
uses-sdk
INJECTED from C:\Flutter\flutter_windows_v1.9.1+hotfix.6-stable\flutter\.pub-cache\hosted\pub.dartlang.org\firebase_database-2.0.3\android\src\main\AndroidManifest.xml reason: use-sdk injection requested
INJECTED from C:\Flutter\flutter_windows_v1.9.1+hotfix.6-stable\flutter\.pub-cache\hosted\pub.dartlang.org\firebase_database-2.0.3\android\src\main\AndroidManifest.xml
INJECTED from C:\Flutter\flutter_windows_v1.9.1+hotfix.6-stable\flutter\.pub-cache\hosted\pub.dartlang.org\firebase_database-2.0.3\android\src\main\AndroidManifest.xml
	android:minSdkVersion
		INJECTED from C:\Flutter\flutter_windows_v1.9.1+hotfix.6-stable\flutter\.pub-cache\hosted\pub.dartlang.org\firebase_database-2.0.3\android\src\main\AndroidManifest.xml
		ADDED from C:\Flutter\flutter_windows_v1.9.1+hotfix.6-stable\flutter\.pub-cache\hosted\pub.dartlang.org\firebase_database-2.0.3\android\src\main\AndroidManifest.xml
		INJECTED from C:\Flutter\flutter_windows_v1.9.1+hotfix.6-stable\flutter\.pub-cache\hosted\pub.dartlang.org\firebase_database-2.0.3\android\src\main\AndroidManifest.xml
